===========Generating Bitstream===========
# IDMUX (count=6)
00000000: 00 00 00 00 00 00
# IOPORT_0 (count=7)
00000006: 02 00 00 00 00 00 00
# IOPINS0_0 (count=10)
0000000d: 01 00 00 03 02 00 02 00 00 00
# IOPINS1_0 + 0x0000000B (count=5)
00000017: 00 00 00 00 00
# PICU_0 (count=8)
0000001c: 01 00 00 00 00 00 00 00
# IOPORT_1 (count=7)
00000024: 00 00 00 00 00 00 00
# IOPINS0_1 (count=10)
0000002b: 04 00 00 0f 0b 00 00 00 00 00
# IOPINS1_1 + 0x0000000B (count=5)
00000035: 00 00 00 00 00
# PICU_1 (count=8)
0000003a: 00 00 03 00 00 00 00 00
# IOPORT_2 (count=7)
00000042: 00 00 00 00 00 00 00
# IOPINS0_2 (count=10)
00000049: 80 00 00 84 04 00 00 00 00 00
# IOPINS1_2 + 0x0000000B (count=5)
00000053: 00 00 00 00 00
# PICU_2 (count=8)
00000058: 00 00 00 00 00 00 00 00
# IOPORT_3 (count=7)
00000060: 30 90 00 00 0f 00 00
# IOPINS0_3 (count=10)
00000067: ff 00 00 ff 00 00 f0 00 00 00
# IOPINS1_3 + 0x0000000B (count=5)
00000071: 00 00 00 00 00
# PICU_3 (count=8)
00000076: 00 00 00 00 00 00 00 00
# IOPORT_4 (count=7)
0000007e: 00 00 00 00 00 00 00
# IOPINS0_4 (count=16)
00000085: 00 00 00 00 00 00 00 00 00 00 00 00 00 00 00 00

# IOPORT_5 (count=7)
00000095: 00 00 00 00 00 00 00
# IOPINS0_5 (count=16)
0000009c: 00 00 00 00 00 00 00 00 00 00 00 00 00 00 00 00

# IOPORT_6 (count=7)
000000ac: 00 00 00 00 00 00 00
# IOPINS0_6 (count=16)
000000b3: 00 00 00 00 00 00 00 00 00 00 00 00 00 00 00 00

# IOPORT_7 (count=6)
000000c3: 00 00 00 00 00 00
# IOPINS0_7 (count=8)
000000c9: 00 7f 7f 00 00 00 00 00
# IOPINS1_7 + 0x00000009 (count=5)
000000d1: 00 00 00 00 00
# PICU_7 (count=8)
000000d6: 00 00 00 00 00 00 00 00
# IOPORT_8 (count=7)
000000de: 00 00 00 00 00 00 00
# IOPINS0_8 (count=16)
000000e5: 00 00 00 00 00 00 00 00 00 00 00 00 00 00 00 00

# IDMUX_IRQ (count=8)
000000f5: 0f 00 00 00 00 00 00 00
# CYDEV_CLKDIST_DCFG0_CFG0 (count=3)
000000fd: 5f 09 18
# CYDEV_CLKDIST_DCFG1_CFG0 (count=3)
00000100: ff ff 18
# CYDEV_SLOWCLK_ILO_CR0 (count=1)
00000103: 02
# CYDEV_CLKDIST_CR (count=1)
00000104: 08
# CYDEV_FASTCLK_IMO_CR (count=1)
00000105: 03
# CYDEV_FASTCLK_PLL_P (count=2)
00000106: 08 00
# CYDEV_FASTCLK_PLL_CFG0 (count=2)
00000108: 51 12
# CYDEV_CLKDIST_MSTR0 (count=2)
0000010a: 00 01
# CYDEV_CLKDIST_MSTR0 (count=1)
0000010c: 07
# CYDEV_CLKDIST_BCFG0 (count=1)
0000010d: 00
# CYDEV_CLKDIST_BCFG2 (count=1)
0000010e: 48
# CYDEV_CLKDIST_MSTR0 (count=1)
0000010f: 00
# CYDEV_CLKDIST_LD (count=1)
00000110: 02
# CYDEV_PM_ACT_CFG2 (count=1)
00000111: 03
# UDB_1_5_0_CONFIG (count=128)
00000112: 00 00 00 00 00 00 00 00 00 00 00 00 00 00 00 00
00000122: 00 00 00 00 00 00 00 00 00 00 00 00 00 00 00 00
00000132: 00 00 00 00 00 00 00 00 00 00 00 00 00 00 00 00
00000142: 00 00 00 00 00 00 00 00 00 00 00 00 00 00 00 00
00000152: 00 00 00 00 00 00 00 00 00 00 00 00 00 00 00 00
00000162: 00 00 00 00 00 00 00 00 00 00 00 00 00 00 00 00
00000172: 00 00 00 00 00 00 00 00 00 00 00 00 00 00 00 00
00000182: 00 00 00 00 00 00 00 00 00 00 00 00 00 00 00 00

# UDB_1_5_1_CONFIG (count=128)
00000192: 00 00 00 00 00 00 00 00 00 00 00 00 00 00 00 00
000001a2: 00 00 00 00 00 00 00 00 00 00 00 00 00 00 00 00
000001b2: 00 00 00 00 00 00 00 00 00 00 00 00 00 00 00 00
000001c2: 00 00 00 00 00 00 00 00 00 00 00 00 00 00 00 00
000001d2: 00 00 00 00 00 00 00 00 00 00 00 00 00 00 00 00
000001e2: 00 00 00 00 00 00 00 00 00 00 00 00 00 00 00 00
000001f2: 00 00 00 00 00 00 00 00 00 00 00 00 00 00 00 00
00000202: 00 00 00 00 00 00 00 00 00 00 00 00 00 00 00 00

# UDB_1_4_1_CONFIG (count=128)
00000212: 00 00 01 00 00 00 00 00 00 00 00 00 00 00 00 00
00000222: 00 00 02 00 00 00 00 00 00 00 00 00 00 00 00 00
00000232: 00 00 00 00 00 00 00 00 00 00 02 00 00 00 00 00
00000242: 01 00 00 00 02 00 01 00 00 00 00 00 00 00 00 00
00000252: 10 06 00 00 00 00 00 00 00 ff ff ff 00 a0 00 04
00000262: 18 00 80 00 00 00 00 00 04 00 04 04 01 11 00 01
00000272: 40 00 c0 00 40 40 c0 00 c0 00 c0 00 c0 00 c0 00
00000282: 00 00 00 00 00 00 00 00 00 00 00 00 00 00 00 00

# UDB_1_4_0_CONFIG (count=128)
00000292: 02 00 00 00 00 00 00 00 00 00 00 00 00 00 00 00
000002a2: 00 00 00 00 00 00 00 00 00 00 00 00 00 00 04 00
000002b2: 00 00 00 00 00 00 03 00 00 00 04 00 00 00 00 00
000002c2: 01 00 00 00 04 00 02 00 00 00 00 00 00 00 10 00
000002d2: 40 06 00 00 00 d0 00 02 13 ff ff ff 00 af 0f 04
000002e2: 18 00 00 00 05 00 00 00 04 00 04 04 01 11 00 01
000002f2: 40 00 c0 00 40 40 c0 00 c0 00 c0 00 c0 00 c0 00
00000302: 00 00 00 00 00 00 00 00 00 00 00 00 00 00 00 00

# UDB_1_3_0_CONFIG (count=128)
00000312: 00 00 00 00 00 00 00 00 00 00 00 00 00 00 00 00
00000322: 00 00 00 00 00 00 00 00 00 00 00 00 00 00 00 00
00000332: 00 00 00 00 00 00 00 00 00 00 00 00 00 00 00 00
00000342: 00 00 00 00 00 00 00 00 00 00 00 00 00 00 00 00
00000352: 00 00 00 00 00 00 00 00 00 00 00 00 00 00 00 00
00000362: 00 00 00 00 00 00 00 00 00 00 00 00 00 00 00 00
00000372: 00 00 00 00 00 00 00 00 00 00 00 00 00 00 00 00
00000382: 00 00 00 00 00 00 00 00 00 00 00 00 00 00 00 00

# UDB_1_3_1_CONFIG (count=128)
00000392: 00 00 00 00 00 00 00 00 00 00 00 00 00 00 00 00
000003a2: 00 00 00 00 00 00 00 00 00 00 00 00 00 00 00 00
000003b2: 00 00 00 00 00 00 00 00 00 00 00 00 00 00 00 00
000003c2: 00 00 00 00 00 00 00 00 00 00 00 00 00 00 00 00
000003d2: 00 00 00 00 00 00 00 00 00 00 00 00 00 00 00 00
000003e2: 00 00 00 00 00 00 00 00 00 00 00 00 00 00 00 00
000003f2: 00 00 00 00 00 00 00 00 00 00 00 00 00 00 00 00
00000402: 00 00 00 00 00 00 00 00 00 00 00 00 00 00 00 00

# UDB_1_2_1_CONFIG (count=128)
00000412: 00 00 00 00 00 00 00 00 00 00 00 00 00 00 00 00
00000422: 00 00 00 00 00 00 00 00 00 00 00 00 00 00 00 00
00000432: 00 00 00 00 00 00 00 00 00 00 00 00 00 00 00 00
00000442: 00 00 00 00 00 00 00 00 00 00 00 00 00 00 00 00
00000452: 00 00 00 00 00 00 00 00 00 00 00 00 00 00 00 00
00000462: 00 00 00 00 00 00 00 00 00 00 00 00 00 00 00 00
00000472: 00 00 00 00 00 00 00 00 00 00 00 00 00 00 00 00
00000482: 00 00 00 00 00 00 00 00 00 00 00 00 00 00 00 00

# UDB_1_2_0_CONFIG (count=128)
00000492: 00 00 00 00 00 00 00 00 00 00 00 00 00 00 00 00
000004a2: 00 00 00 00 00 00 00 00 00 00 00 00 00 00 00 00
000004b2: 00 00 00 00 00 00 00 00 00 00 00 00 00 00 00 00
000004c2: 00 00 00 00 00 00 00 00 00 00 00 00 00 00 00 00
000004d2: 00 00 00 00 00 00 00 00 00 00 00 00 00 00 00 00
000004e2: 00 00 00 00 00 00 00 00 00 00 00 00 00 00 00 00
000004f2: 00 00 00 00 00 00 00 00 00 00 00 00 00 00 00 00
00000502: 00 00 00 00 00 00 00 00 00 00 00 00 00 00 00 00

# UDB_0_2_1_CONFIG (count=128)
00000512: 00 00 00 00 00 00 00 00 00 00 00 00 00 00 00 00
00000522: 00 00 00 00 00 00 00 00 00 00 00 00 00 00 00 00
00000532: 00 00 00 00 00 00 00 00 00 00 00 00 00 00 00 00
00000542: 00 00 00 00 00 00 00 00 00 00 00 00 00 00 00 00
00000552: 00 00 00 00 00 00 00 00 00 00 00 00 00 00 00 00
00000562: 00 00 00 00 00 00 00 00 00 00 00 00 00 00 00 00
00000572: 00 00 00 00 00 00 00 00 00 00 00 00 00 00 00 00
00000582: 00 00 00 00 00 00 00 00 00 00 00 00 00 00 00 00

# UDB_0_2_0_CONFIG (count=128)
00000592: 00 00 00 00 00 00 00 00 00 00 00 00 00 00 00 00
000005a2: 00 00 00 00 00 00 00 00 00 00 00 00 00 00 00 00
000005b2: 00 00 00 00 00 00 00 00 00 00 00 00 00 00 00 00
000005c2: 00 00 00 00 00 00 00 00 00 00 00 00 00 00 00 00
000005d2: 00 00 00 00 00 00 00 00 00 00 00 00 00 00 00 00
000005e2: 00 00 00 00 00 00 00 00 00 00 00 00 00 00 00 00
000005f2: 00 00 00 00 00 00 00 00 00 00 00 00 00 00 00 00
00000602: 00 00 00 00 00 00 00 00 00 00 00 00 00 00 00 00

# UDB_0_3_0_CONFIG (count=128)
00000612: 00 00 00 00 00 00 00 00 00 00 00 00 00 00 00 00
00000622: 00 00 00 00 00 00 00 00 00 00 00 00 00 00 00 00
00000632: 00 00 00 00 00 00 00 00 00 00 00 00 00 00 00 00
00000642: 00 00 00 00 00 00 00 00 00 00 00 00 00 00 00 00
00000652: 00 00 00 00 00 00 00 00 00 00 00 00 00 00 00 00
00000662: 00 00 00 00 00 00 00 00 00 00 00 00 00 00 00 00
00000672: 00 00 00 00 00 00 00 00 00 00 00 00 00 00 00 00
00000682: 00 00 00 00 00 00 00 00 00 00 00 00 00 00 00 00

# UDB_0_3_1_CONFIG (count=128)
00000692: 00 00 00 00 00 00 00 00 00 00 00 00 00 00 00 00
000006a2: 00 00 00 00 00 00 00 00 00 00 00 00 00 00 00 00
000006b2: 00 00 00 00 00 00 00 00 00 00 00 00 00 00 00 00
000006c2: 00 00 00 00 00 00 00 00 00 00 00 00 00 00 00 00
000006d2: 00 00 00 00 00 00 00 00 00 00 00 00 00 00 00 00
000006e2: 00 00 00 00 00 00 00 00 00 00 00 00 00 00 00 00
000006f2: 00 00 00 00 00 00 00 00 00 00 00 00 00 00 00 00
00000702: 00 00 00 00 00 00 00 00 00 00 00 00 00 00 00 00

# UDB_0_4_1_CONFIG (count=128)
00000712: 00 00 00 00 00 00 00 00 00 00 00 00 00 00 00 00
00000722: 00 00 00 00 00 00 00 00 00 00 00 00 00 00 00 00
00000732: 00 00 00 00 00 00 00 00 00 00 00 00 00 00 00 00
00000742: 00 00 00 00 00 00 00 00 00 00 00 00 00 00 00 00
00000752: 00 00 00 00 00 00 00 00 00 00 00 00 00 00 00 00
00000762: 00 00 00 00 00 00 00 00 00 00 00 00 00 00 00 00
00000772: 00 00 00 00 00 00 00 00 00 00 00 00 00 00 00 00
00000782: 00 00 00 00 00 00 00 00 00 00 00 00 00 00 00 00

# UDB_0_4_0_CONFIG (count=128)
00000792: 00 00 00 00 00 00 00 00 00 00 00 00 00 00 00 00
000007a2: 00 00 00 00 00 00 00 00 00 00 00 00 00 00 00 00
000007b2: 00 00 00 00 00 00 00 00 00 00 00 00 00 00 00 00
000007c2: 00 00 00 00 00 00 00 00 00 00 00 00 00 00 00 00
000007d2: 00 00 00 00 00 00 00 00 00 00 00 00 00 00 00 00
000007e2: 00 00 00 00 00 00 00 00 00 00 00 00 00 00 00 00
000007f2: 00 00 00 00 00 00 00 00 00 00 00 00 00 00 00 00
00000802: 00 00 00 00 00 00 00 00 00 00 00 00 00 00 00 00

# UDB_0_5_0_CONFIG (count=128)
00000812: 00 00 00 00 00 00 00 00 00 00 00 00 00 00 00 00
00000822: 00 00 00 00 00 00 00 00 00 00 00 00 00 00 00 00
00000832: 00 00 00 00 00 00 00 00 00 00 00 00 00 00 00 00
00000842: 00 00 00 00 00 00 00 00 00 00 00 00 00 00 00 00
00000852: 00 00 00 00 00 00 00 00 00 00 00 00 00 00 00 00
00000862: 00 00 00 00 00 00 00 00 00 00 00 00 00 00 00 00
00000872: 00 00 00 00 00 00 00 00 00 00 00 00 00 00 00 00
00000882: 00 00 00 00 00 00 00 00 00 00 00 00 00 00 00 00

# UDB_0_5_1_CONFIG (count=128)
00000892: 00 00 00 00 00 00 00 00 00 00 00 00 00 00 00 00
000008a2: 00 00 00 00 00 00 00 00 00 00 00 00 00 00 00 00
000008b2: 00 00 00 00 00 00 00 00 00 00 00 00 00 00 00 00
000008c2: 00 00 00 00 00 00 00 00 00 00 00 00 00 00 00 00
000008d2: 00 00 00 00 00 00 00 00 00 00 00 00 00 00 00 00
000008e2: 00 00 00 00 00 00 00 00 00 00 00 00 00 00 00 00
000008f2: 00 00 00 00 00 00 00 00 00 00 00 00 00 00 00 00
00000902: 00 00 00 00 00 00 00 00 00 00 00 00 00 00 00 00

# UDB_1_0_0_CONFIG (count=128)
00000912: 00 03 00 1c 00 11 00 0e 00 00 00 00 00 00 00 00
00000922: 00 00 00 00 00 00 00 00 00 05 00 1a 00 09 00 16
00000932: 00 00 00 00 00 00 00 00 00 00 00 00 00 00 00 00
00000942: 00 00 00 00 00 1c 00 0f 00 00 00 00 00 00 00 00
00000952: 00 00 00 00 00 00 00 00 00 00 00 00 00 00 00 00
00000962: 00 00 00 00 00 00 00 00 00 04 00 00 00 00 00 01
00000972: 00 00 00 00 00 00 00 00 00 00 00 00 00 00 00 00
00000982: 00 00 00 00 00 00 00 00 00 00 00 00 00 00 00 00

# UDB_1_0_1_CONFIG (count=128)
00000992: 04 03 0b 1c 00 00 00 00 00 00 00 00 00 00 00 00
000009a2: 00 00 00 00 00 11 00 0e 00 09 00 16 02 05 0d 1a
000009b2: 01 00 0e 00 00 00 00 00 00 00 00 00 08 00 07 00
000009c2: 0f 18 00 14 05 1b 03 0f 00 00 00 00 00 00 51 00
000009d2: 00 00 00 00 00 00 00 00 00 00 00 00 00 00 00 00
000009e2: 00 00 00 00 00 00 00 00 04 04 00 04 00 00 00 01
000009f2: 00 00 00 00 00 00 00 00 00 00 00 00 00 00 00 00
00000a02: 00 00 00 00 00 00 00 00 00 00 00 00 00 00 00 00

# UDB_1_1_1_CONFIG (count=128)
00000a12: 00 00 01 00 00 00 00 00 00 00 00 00 00 00 00 00
00000a22: 00 00 01 00 00 00 00 00 00 00 00 00 00 00 00 00
00000a32: 00 00 00 00 00 00 00 00 00 00 00 00 00 00 00 00
00000a42: 01 00 00 00 00 00 00 00 00 00 00 00 00 00 01 00
00000a52: 14 00 00 00 00 00 00 00 00 ff ff ff 00 00 00 01
00000a62: 18 00 00 00 00 00 00 00 04 00 04 00 00 01 00 01
00000a72: 40 00 40 00 40 40 80 00 80 00 80 00 80 00 80 00
00000a82: 00 00 00 00 00 00 00 00 00 00 00 00 00 00 00 00

# UDB_1_1_0_CONFIG (count=128)
00000a92: 00 00 00 00 00 00 00 00 00 00 00 00 00 00 00 00
00000aa2: 00 00 01 00 00 00 00 00 00 00 00 00 00 00 00 00
00000ab2: 00 00 00 00 00 00 00 00 00 00 00 00 00 00 01 00
00000ac2: 01 00 00 00 00 00 00 00 00 00 00 00 00 00 00 00
00000ad2: 14 00 00 00 00 ec 00 20 23 ff ff ff 00 83 03 01
00000ae2: 18 00 80 00 01 00 00 00 04 00 04 04 01 11 00 01
00000af2: 40 00 40 00 40 40 80 00 80 00 80 00 80 00 80 00
00000b02: 00 00 00 00 00 00 00 00 00 00 00 00 00 00 00 00

# UDB_0_1_1_CONFIG (count=128)
00000b12: 00 00 00 00 00 00 00 00 00 00 00 00 00 00 00 00
00000b22: 00 00 00 00 00 00 00 00 00 00 00 00 00 00 00 00
00000b32: 00 00 00 00 00 00 00 00 00 00 00 00 00 00 00 00
00000b42: 00 00 00 00 00 00 00 00 00 00 00 00 00 00 00 00
00000b52: 00 00 00 00 00 00 00 00 00 00 00 00 00 00 00 00
00000b62: 00 00 00 00 00 00 00 00 00 00 00 00 00 00 00 00
00000b72: 00 00 00 00 00 00 00 00 00 00 00 00 00 00 00 00
00000b82: 00 00 00 00 00 00 00 00 00 00 00 00 00 00 00 00

# UDB_0_1_0_CONFIG (count=128)
00000b92: 00 00 00 00 00 00 00 00 00 00 00 00 00 00 00 00
00000ba2: 00 00 00 00 00 00 00 00 00 00 00 00 00 00 00 00
00000bb2: 00 00 00 00 00 00 00 00 00 00 00 00 00 00 00 00
00000bc2: 00 00 00 00 00 00 00 00 00 00 00 00 00 00 00 00
00000bd2: 00 00 00 00 00 00 00 00 00 00 00 00 00 00 00 00
00000be2: 00 00 00 00 00 00 00 00 00 00 00 00 00 00 00 00
00000bf2: 00 00 00 00 00 00 00 00 00 00 00 00 00 00 00 00
00000c02: 00 00 00 00 00 00 00 00 00 00 00 00 00 00 00 00

# UDB_0_0_0_CONFIG (count=128)
00000c12: 00 00 00 00 00 00 00 00 00 00 00 00 00 00 00 00
00000c22: 00 00 00 00 00 00 00 00 00 00 00 00 00 00 00 00
00000c32: 00 00 00 00 00 00 00 00 00 00 00 00 00 00 00 00
00000c42: 00 00 00 00 00 00 00 00 00 00 00 00 00 00 00 00
00000c52: 00 00 00 00 00 00 00 00 00 00 00 00 00 00 00 00
00000c62: 00 00 00 00 00 00 00 00 00 00 00 00 00 00 00 00
00000c72: 00 00 00 00 00 00 00 00 00 00 00 00 00 00 00 00
00000c82: 00 00 00 00 00 00 00 00 00 00 00 00 00 00 00 00

# UDB_0_0_1_CONFIG (count=128)
00000c92: 00 00 00 00 00 00 00 00 00 00 00 00 00 00 00 00
00000ca2: 00 00 00 00 00 00 00 00 00 00 00 00 00 00 00 00
00000cb2: 00 00 00 00 00 00 00 00 00 00 00 00 00 00 00 00
00000cc2: 00 00 00 00 00 00 00 00 00 00 00 00 00 00 00 00
00000cd2: 00 00 00 00 00 00 00 00 00 00 00 00 00 00 00 00
00000ce2: 00 00 00 00 00 00 00 00 00 00 00 00 00 00 00 00
00000cf2: 00 00 00 00 00 00 00 00 00 00 00 00 00 00 00 00
00000d02: 00 00 00 00 00 00 00 00 00 00 00 00 00 00 00 00

# UWRK_B0_WRK_DP_BITS (count=64)
00000d12: 00 00 00 00 00 00 00 00 00 00 00 00 00 00 00 00
00000d22: 00 00 00 00 00 00 00 00 00 00 00 00 00 00 00 00
00000d32: 00 00 00 00 00 00 00 00 00 00 00 00 00 00 00 00
00000d42: 00 00 00 00 00 00 00 00 00 00 00 00 00 00 00 00

# UWRK_B0_WRK_STATCTL_BITS + 0x00000070 (count=32)
00000d52: 00 00 00 00 00 00 00 00 00 00 00 00 00 00 00 00
00000d62: 00 00 00 0d 00 00 00 00 00 00 00 00 00 00 00 00

# UWRK_B1_WRK_DP_BITS (count=64)
00000d72: 00 00 00 00 00 00 00 00 00 00 00 00 00 00 00 00
00000d82: 00 00 00 00 00 00 00 00 00 00 00 00 00 00 00 00
00000d92: 00 00 00 00 00 00 00 00 00 00 00 00 00 00 00 00
00000da2: 00 00 00 00 00 00 00 00 00 00 00 00 00 00 00 00

# UWRK_B1_WRK_STATCTL_BITS + 0x00000070 (count=32)
00000db2: 00 00 00 00 00 00 00 00 00 00 00 00 00 00 00 00
00000dc2: 00 00 00 00 00 00 00 0d 00 00 00 00 00 00 00 00

# UCFG_BCTL1 (count=16)
00000dd2: 03 00 00 00 00 00 00 00 00 00 03 00 00 00 00 00

# UCFG_BCTL0 (count=16)
00000de2: 02 00 00 00 00 00 00 00 02 00 00 00 00 00 00 00

# DSISWITCH_0_0 (count=128)
00000df2: 00 00 00 00 00 00 00 00 00 00 00 00 00 00 00 00
00000e02: 00 00 00 00 00 00 00 00 00 00 00 00 00 00 00 00
00000e12: 00 00 00 00 00 00 00 00 00 00 00 00 00 00 00 00
00000e22: 00 00 00 00 00 00 00 00 00 00 00 00 00 00 00 00
00000e32: 00 00 00 00 00 00 00 00 00 00 00 00 00 00 00 00
00000e42: 00 00 00 00 00 00 00 00 00 00 00 00 00 00 00 00
00000e52: 00 00 00 00 00 00 00 00 00 00 00 00 00 00 00 00
00000e62: 00 00 00 00 00 00 00 00 00 00 00 00 00 00 00 00

# DSI0_0_HV_ROUTING + 0x00000080 (count=128)
00000e72: 00 00 00 00 00 00 00 00 00 00 00 00 00 00 00 00
00000e82: 00 00 00 00 00 00 00 00 00 00 00 00 00 00 00 00
00000e92: 00 00 00 00 00 00 00 00 00 00 00 00 00 00 00 00
00000ea2: 00 00 00 00 00 00 00 00 00 00 00 00 00 00 00 00
00000eb2: 00 00 00 00 00 00 00 00 00 00 00 00 00 00 00 00
00000ec2: 00 00 00 00 00 00 00 00 00 00 00 00 00 00 00 00
00000ed2: 00 00 00 00 00 00 00 00 00 00 00 00 00 00 00 00
00000ee2: 00 00 00 00 00 00 00 00 00 00 00 00 00 00 00 00

# DSISWITCH_0_1 (count=128)
00000ef2: 00 00 00 00 00 00 00 00 00 00 00 00 00 00 00 00
00000f02: 00 00 00 00 00 00 00 00 00 00 00 00 00 00 00 00
00000f12: 00 00 00 00 00 00 00 00 00 00 00 00 00 00 00 00
00000f22: 00 00 00 00 00 00 00 00 00 00 00 00 00 00 00 00
00000f32: 00 00 00 00 00 00 00 00 00 00 00 00 00 00 00 00
00000f42: 00 00 00 00 00 00 00 00 00 00 00 00 00 00 00 00
00000f52: 00 00 00 00 00 00 00 00 00 00 00 00 00 00 00 00
00000f62: 00 00 00 00 00 00 00 00 00 00 00 00 00 00 00 00

# DSI0_1_HV_ROUTING + 0x00000080 (count=128)
00000f72: 00 00 00 00 00 00 00 00 00 00 00 00 00 00 00 00
00000f82: 00 00 00 00 00 00 00 00 00 00 00 00 00 00 00 00
00000f92: 00 00 00 00 00 00 00 00 00 00 00 00 00 00 00 00
00000fa2: 00 00 00 00 00 00 00 00 00 00 00 00 00 00 00 00
00000fb2: 00 00 00 00 00 00 00 00 00 00 00 00 00 00 00 00
00000fc2: 00 00 00 00 00 00 00 00 00 00 00 00 00 00 00 00
00000fd2: 00 00 00 00 00 00 00 00 00 00 00 00 00 00 00 00
00000fe2: 00 00 00 00 00 00 00 00 00 00 00 00 00 00 00 00

# DSISWITCH_0_2 (count=128)
00000ff2: 00 00 00 00 00 00 00 00 00 00 00 00 00 00 00 00
00001002: 00 00 00 00 00 00 00 00 00 00 00 00 00 00 00 00
00001012: 00 00 00 00 00 00 00 00 00 00 00 00 00 00 00 00
00001022: 00 00 00 00 00 00 00 00 00 00 00 00 00 00 00 00
00001032: 00 00 00 00 00 00 00 00 00 00 00 00 00 00 00 00
00001042: 00 00 00 00 00 00 00 00 00 00 00 00 00 00 00 00
00001052: 00 00 00 00 00 00 00 00 00 00 00 00 00 00 00 00
00001062: 00 00 00 00 00 00 00 00 00 00 00 00 00 00 00 00

# DSI0_2_HV_ROUTING + 0x00000080 (count=128)
00001072: 00 00 00 00 00 00 00 00 00 00 00 00 00 00 00 00
00001082: 00 00 00 00 00 00 00 00 00 00 00 00 00 00 00 00
00001092: 00 00 00 00 00 00 00 00 00 00 00 00 00 00 00 00
000010a2: 00 00 00 00 00 00 00 00 00 00 00 00 00 00 00 00
000010b2: 00 00 00 00 00 00 00 00 00 00 00 00 00 00 00 00
000010c2: 00 00 00 00 00 00 00 00 00 00 00 00 00 00 00 00
000010d2: 00 00 00 00 00 00 00 00 00 00 00 00 00 00 00 00
000010e2: 00 00 00 00 00 00 00 00 00 00 00 00 00 00 00 00

# DSISWITCH_0_3 (count=128)
000010f2: 00 00 00 00 00 00 00 00 00 00 00 00 00 00 00 00
00001102: 00 00 00 00 00 00 00 00 00 00 00 00 00 00 00 00
00001112: 00 00 00 00 00 00 00 00 00 00 00 00 00 00 00 00
00001122: 00 00 00 00 00 00 00 00 00 00 00 00 00 00 00 00
00001132: 00 00 00 00 00 00 00 00 00 00 00 00 00 00 00 00
00001142: 00 00 00 00 00 00 00 00 00 00 00 00 00 00 00 00
00001152: 00 00 00 00 00 00 00 00 00 00 00 00 00 00 00 00
00001162: 00 00 00 00 00 00 00 00 00 00 00 00 00 00 00 00

# DSI0_3_HV_ROUTING + 0x00000080 (count=128)
00001172: 00 00 00 00 00 00 00 00 00 00 00 00 00 00 00 00
00001182: 00 00 00 00 00 00 00 00 00 00 00 00 00 00 00 00
00001192: 00 00 00 00 00 00 00 00 00 00 00 00 00 00 00 00
000011a2: 00 00 00 00 00 00 00 00 00 00 00 00 00 00 00 00
000011b2: 00 00 00 00 00 00 00 00 00 00 00 00 00 00 00 00
000011c2: 00 00 00 00 00 00 00 00 00 00 00 00 00 00 00 00
000011d2: 00 00 00 00 00 00 00 00 00 00 00 00 00 00 00 00
000011e2: 00 00 00 00 00 00 00 00 00 00 00 00 00 00 00 00

# DSISWITCH_0_4 (count=128)
000011f2: 00 00 00 00 00 00 00 00 00 00 00 00 00 00 00 00
00001202: 00 00 00 00 00 00 00 00 00 00 00 00 00 00 00 00
00001212: 00 00 00 00 00 00 00 00 00 00 00 00 00 00 00 00
00001222: 00 00 00 00 00 00 00 00 00 00 00 00 00 00 00 00
00001232: 00 00 00 00 00 00 00 00 00 00 00 00 00 00 00 00
00001242: 00 00 00 00 00 00 00 00 00 00 00 00 00 00 00 00
00001252: 00 00 00 00 00 00 00 00 00 00 00 00 00 00 00 00
00001262: 00 00 00 00 00 00 00 00 00 00 00 00 00 00 00 00

# DSI0_4_HV_ROUTING + 0x00000080 (count=128)
00001272: 00 00 00 00 00 00 00 00 00 00 00 00 00 00 00 00
00001282: 00 00 00 00 00 00 00 00 00 00 00 00 00 00 00 00
00001292: 00 00 00 00 00 00 00 00 00 00 00 00 00 00 00 00
000012a2: 00 00 00 00 00 00 00 00 00 00 00 00 00 00 00 00
000012b2: 00 00 00 00 00 00 00 00 00 00 00 00 00 00 00 00
000012c2: 00 00 00 00 00 00 00 00 00 00 00 00 00 00 00 00
000012d2: 00 00 00 00 00 00 00 00 00 00 00 00 00 00 00 00
000012e2: 00 00 00 00 00 00 00 00 00 00 00 00 00 00 00 00

# DSISWITCH_0_5 (count=128)
000012f2: 00 00 00 00 00 00 00 00 00 00 00 00 00 00 00 00
00001302: 00 00 00 00 00 00 00 00 00 00 00 00 00 00 00 00
00001312: 00 00 00 00 00 00 00 00 00 00 00 00 00 00 00 00
00001322: 00 00 00 00 00 00 00 00 00 00 00 00 00 00 00 00
00001332: 00 00 00 00 00 00 00 00 00 00 00 00 00 00 00 00
00001342: 00 00 00 00 00 00 00 00 00 00 00 00 00 00 00 00
00001352: 00 00 00 00 00 00 00 00 00 00 00 00 00 00 00 00
00001362: 00 00 00 00 00 00 00 00 00 00 00 00 00 00 00 00

# DSI0_5_HV_ROUTING + 0x00000080 (count=128)
00001372: 00 00 00 00 00 00 00 00 00 00 00 00 00 00 00 00
00001382: 00 00 00 00 00 00 00 00 00 00 00 00 00 00 00 00
00001392: 00 00 00 00 00 00 00 00 00 00 00 00 00 00 00 00
000013a2: 00 00 00 00 00 00 00 00 00 00 00 00 00 00 00 00
000013b2: 00 00 00 00 00 00 00 00 00 00 00 00 00 00 00 00
000013c2: 00 00 00 00 00 00 00 00 00 00 00 00 00 00 00 00
000013d2: 00 00 00 00 00 00 00 00 00 00 00 00 00 00 00 00
000013e2: 00 00 00 00 00 00 00 00 00 00 00 00 00 00 00 00

# UDBSWITCH_0_0 (count=128)
000013f2: 00 00 00 00 00 00 00 00 00 00 00 00 00 00 00 00
00001402: 00 00 00 00 00 00 00 00 00 00 00 00 00 00 00 00
00001412: 00 00 00 00 00 00 00 00 00 00 00 00 00 00 00 00
00001422: 00 00 00 00 00 00 00 00 00 00 00 00 00 00 00 00
00001432: 00 00 00 00 00 00 00 00 00 00 00 00 00 00 00 00
00001442: 00 00 00 00 00 00 00 00 00 00 00 00 00 00 00 00
00001452: 00 00 00 00 00 00 00 00 00 00 00 00 00 00 00 00
00001462: 00 00 00 00 00 00 00 00 00 00 00 00 00 00 00 00

# UDB_1_0_HV_ROUTING + 0x00000080 (count=128)
00001472: 00 00 00 00 00 00 00 00 00 00 00 00 00 00 00 00
00001482: 00 00 00 00 00 00 00 00 00 00 00 00 00 00 00 00
00001492: 00 00 00 00 00 00 00 00 00 00 00 00 00 00 00 00
000014a2: 00 00 00 00 00 00 00 00 00 00 00 00 00 00 00 00
000014b2: 00 00 00 00 00 00 00 00 00 00 00 00 00 00 00 00
000014c2: 00 00 00 00 00 00 00 00 00 00 00 00 00 00 00 00
000014d2: 00 00 00 00 00 00 00 00 00 00 00 00 00 00 00 00
000014e2: 00 00 00 00 00 00 00 00 00 00 00 00 00 00 00 00

# UDBSWITCH_1_0 (count=128)
000014f2: 00 00 00 00 00 02 00 00 00 00 00 00 80 00 00 00
00001502: 00 00 00 00 00 01 01 00 00 00 00 00 00 00 09 01
00001512: 04 00 a0 00 51 20 00 08 00 00 00 00 00 00 00 00
00001522: 00 20 80 00 00 00 a0 08 05 00 00 00 01 00 00 00
00001532: 00 00 00 00 00 00 00 00 00 00 00 00 00 00 00 00
00001542: 00 00 00 00 00 00 00 00 00 00 00 00 50 00 09 00
00001552: 00 00 00 00 00 00 00 02 00 00 00 00 00 00 00 00
00001562: 00 00 00 00 00 00 00 00 00 00 00 00 00 00 00 00

# UDB_2_0_HV_ROUTING + 0x00000080 (count=128)
00001572: 00 00 01 00 00 00 00 08 00 01 a0 00 81 02 00 00
00001582: 00 00 00 00 00 00 00 02 00 00 00 00 00 00 00 00
00001592: 00 00 00 00 00 00 00 00 00 00 40 00 00 00 00 00
000015a2: 00 00 00 00 00 00 00 00 00 00 00 00 00 00 00 00
000015b2: 10 00 80 00 90 00 00 00 00 00 00 00 7c 00 83 00
000015c2: 00 00 00 00 00 00 f0 00 10 00 00 00 00 00 00 00
000015d2: 40 00 a0 00 c0 00 10 00 00 00 00 00 00 00 00 00
000015e2: 00 00 00 00 00 00 00 00 00 00 00 00 00 00 00 00

# UDBSWITCH_0_1 (count=128)
000015f2: 00 00 00 00 00 00 00 00 00 00 00 00 00 00 00 00
00001602: 00 00 00 00 00 00 00 00 00 00 00 00 00 00 00 00
00001612: 00 00 00 00 00 00 00 00 00 00 00 00 00 00 00 00
00001622: 00 00 00 00 00 00 00 00 00 00 00 00 00 00 00 00
00001632: 00 00 00 00 00 00 00 00 00 00 00 00 00 00 00 00
00001642: 00 00 00 00 00 00 00 00 00 00 00 00 00 00 00 00
00001652: 00 00 00 00 00 00 00 00 00 00 00 00 00 00 00 00
00001662: 00 00 00 00 00 00 00 00 00 00 00 00 00 00 00 00

# UDB_1_1_HV_ROUTING + 0x00000080 (count=128)
00001672: 00 00 00 00 00 00 00 00 00 00 00 00 00 00 00 00
00001682: 00 00 00 00 00 00 00 00 00 00 00 00 00 00 00 00
00001692: 00 00 00 00 00 00 00 00 00 00 00 00 00 00 00 00
000016a2: 00 00 00 00 00 00 00 00 00 00 00 00 00 00 00 00
000016b2: 00 00 00 00 00 00 00 00 00 00 00 00 00 00 00 00
000016c2: 00 00 00 00 00 00 00 00 00 00 00 00 00 00 00 00
000016d2: 00 00 00 00 00 00 00 00 00 00 00 00 00 00 00 00
000016e2: 00 00 00 00 00 00 00 00 00 00 00 00 00 00 00 00

# UDBSWITCH_1_1 (count=128)
000016f2: 00 00 00 00 00 00 00 80 00 02 00 00 00 02 00 00
00001702: 00 00 00 80 00 00 00 00 00 00 80 00 00 00 40 00
00001712: 00 00 00 00 00 00 00 00 00 00 00 00 00 00 00 00
00001722: 00 00 00 00 00 00 00 00 00 00 00 00 00 00 00 00
00001732: 02 02 00 00 02 02 00 80 00 05 00 00 00 00 00 00
00001742: 00 02 00 00 00 00 00 00 00 05 40 00 00 00 00 00
00001752: 00 00 00 00 00 00 00 00 00 00 00 00 00 00 00 00
00001762: 00 00 00 80 00 00 00 00 00 00 00 00 00 00 00 00

# UDB_2_1_HV_ROUTING + 0x00000080 (count=128)
00001772: 00 00 00 00 00 00 00 00 00 00 00 00 00 00 00 00
00001782: 00 00 00 00 00 00 00 02 00 00 00 00 00 00 00 00
00001792: 00 00 00 00 00 00 00 00 00 00 00 00 00 00 00 00
000017a2: 00 00 00 00 00 00 00 00 00 00 00 00 00 00 00 00
000017b2: 10 00 18 00 01 00 00 00 00 00 00 00 00 00 00 00
000017c2: 99 00 00 00 00 00 0b 00 00 00 00 00 00 00 00 00
000017d2: 00 00 00 00 00 00 00 00 00 00 00 00 00 00 00 00
000017e2: 00 00 00 00 00 00 00 00 00 00 00 00 00 00 00 00

# UDBSWITCH_0_2 (count=128)
000017f2: 00 00 00 00 00 00 00 00 00 00 00 00 00 00 00 00
00001802: 00 00 00 00 00 00 00 00 00 00 00 00 00 00 00 00
00001812: 00 00 00 00 00 00 00 00 00 00 00 00 00 00 00 00
00001822: 00 00 00 00 00 00 00 00 00 00 00 00 00 00 00 00
00001832: 00 00 00 00 00 00 00 00 00 00 00 00 00 00 00 00
00001842: 00 00 00 00 00 00 00 00 00 00 00 00 00 00 00 00
00001852: 00 00 00 00 00 00 00 00 00 00 00 00 00 00 00 00
00001862: 00 00 00 00 00 00 00 00 00 00 00 00 00 00 00 00

# UDB_1_2_HV_ROUTING + 0x00000080 (count=128)
00001872: 00 00 00 00 00 00 00 00 00 00 00 00 00 00 00 00
00001882: 00 00 00 00 00 00 00 00 00 00 00 00 00 00 00 00
00001892: 00 00 00 00 00 00 00 00 00 00 00 00 00 00 00 00
000018a2: 00 00 00 00 00 00 00 00 00 00 00 00 00 00 00 00
000018b2: 00 00 00 00 00 00 00 00 00 00 00 00 00 00 00 00
000018c2: 00 00 00 00 00 00 00 00 00 00 00 00 00 00 00 00
000018d2: 00 00 00 00 00 00 00 00 00 00 00 00 00 00 00 00
000018e2: 00 00 00 00 00 00 00 00 00 00 00 00 00 00 00 00

# UDBSWITCH_1_2 (count=128)
000018f2: 00 00 00 00 00 00 00 00 00 00 00 00 00 00 00 00
00001902: 00 00 00 00 00 00 00 00 00 00 00 00 00 00 00 00
00001912: 00 00 00 00 00 00 00 00 00 00 00 00 00 00 00 00
00001922: 00 00 00 00 00 00 00 00 00 00 00 00 00 00 00 00
00001932: 00 00 00 00 00 00 00 00 00 00 00 00 00 00 00 00
00001942: 00 00 00 00 00 00 00 00 00 00 00 00 00 00 00 00
00001952: 00 00 00 00 00 00 00 00 00 00 00 00 00 00 00 00
00001962: 00 00 00 00 00 00 00 00 00 00 00 00 00 00 00 00

# UDB_2_2_HV_ROUTING + 0x00000080 (count=128)
00001972: 00 00 00 00 00 00 00 00 00 00 00 00 00 00 00 00
00001982: 00 00 00 00 00 00 00 02 00 00 00 00 00 00 00 00
00001992: 00 00 00 00 00 00 00 00 00 00 00 00 00 00 00 00
000019a2: 00 00 00 00 00 00 00 00 00 00 00 00 00 00 00 00
000019b2: 00 00 00 00 00 00 00 00 00 00 00 00 00 00 00 00
000019c2: 00 00 00 00 00 00 00 00 00 00 00 00 00 00 00 00
000019d2: 00 00 00 00 00 00 00 00 00 00 00 00 00 00 00 00
000019e2: 00 00 00 00 00 00 00 00 00 00 00 00 00 00 00 00

# UDBSWITCH_0_3 (count=128)
000019f2: 00 00 00 00 00 00 00 00 00 00 00 00 00 00 00 00
00001a02: 00 00 00 00 00 00 00 00 00 00 00 00 00 00 00 00
00001a12: 00 00 00 00 00 00 00 00 00 00 00 00 00 00 00 00
00001a22: 00 00 00 00 00 00 00 00 00 00 00 00 00 00 00 00
00001a32: 00 00 00 00 00 00 00 00 00 00 00 00 00 00 00 00
00001a42: 00 00 00 00 00 00 00 00 00 00 00 00 00 00 00 00
00001a52: 00 00 00 00 00 00 00 00 00 00 00 00 00 00 00 00
00001a62: 00 00 00 00 00 00 00 00 00 00 00 00 00 00 00 00

# UDB_1_3_HV_ROUTING + 0x00000080 (count=128)
00001a72: 00 00 00 00 00 00 00 00 00 00 00 00 00 00 00 00
00001a82: 00 00 00 00 00 00 00 00 00 00 00 00 00 00 00 00
00001a92: 00 00 00 00 00 00 00 00 00 00 00 00 00 00 00 00
00001aa2: 00 00 00 00 00 00 00 00 00 00 00 00 00 00 00 00
00001ab2: 00 00 00 00 00 00 00 00 00 00 00 00 00 00 00 00
00001ac2: 00 00 00 00 00 00 00 00 00 00 00 00 00 00 00 00
00001ad2: 00 00 00 00 00 00 00 00 00 00 00 00 00 00 00 00
00001ae2: 00 00 00 00 00 00 00 00 00 00 00 00 00 00 00 00

# UDBSWITCH_1_3 (count=128)
00001af2: 00 00 00 00 00 00 00 00 00 00 00 00 00 00 00 00
00001b02: 00 00 00 00 00 00 00 00 00 00 00 00 00 00 00 00
00001b12: 00 00 00 00 00 00 00 00 00 00 00 00 00 00 00 00
00001b22: 00 00 00 00 00 00 00 00 00 00 00 00 00 00 00 00
00001b32: 00 00 00 00 00 00 00 00 00 00 00 00 00 00 00 00
00001b42: 00 00 00 00 00 00 00 00 00 00 00 00 00 00 00 00
00001b52: 00 00 00 00 00 00 00 00 00 00 00 00 00 00 00 00
00001b62: 00 00 00 00 00 00 00 00 00 00 00 00 00 00 00 00

# UDB_2_3_HV_ROUTING + 0x00000080 (count=128)
00001b72: 00 00 00 00 00 00 00 00 00 00 00 00 00 00 00 00
00001b82: 00 00 00 00 00 00 00 02 00 00 00 00 00 00 00 00
00001b92: 00 00 00 00 00 00 00 00 00 00 00 20 00 00 00 00
00001ba2: 00 00 00 00 00 00 00 00 00 00 00 00 00 00 00 00
00001bb2: 00 00 00 00 00 00 00 00 00 00 00 00 00 00 00 00
00001bc2: 00 00 00 00 00 00 00 00 00 00 00 00 00 00 00 00
00001bd2: 00 00 00 00 00 00 00 00 00 00 00 00 00 00 00 00
00001be2: 00 00 00 00 00 00 00 00 00 00 00 00 00 00 00 00

# UDBSWITCH_0_4 (count=128)
00001bf2: 00 00 00 00 00 00 00 00 00 00 00 00 00 00 00 00
00001c02: 00 00 00 00 00 00 00 00 00 00 00 00 00 00 00 00
00001c12: 00 00 00 00 00 00 00 00 00 00 00 00 00 00 00 00
00001c22: 00 00 00 00 00 00 00 00 00 00 00 00 00 00 00 00
00001c32: 00 00 00 00 00 00 00 00 00 00 00 00 00 00 00 00
00001c42: 00 00 00 00 00 00 00 00 00 00 00 00 00 00 00 00
00001c52: 00 00 00 00 00 00 00 00 00 00 00 00 00 00 00 00
00001c62: 00 00 00 00 00 00 00 00 00 00 00 00 00 00 00 00

# UDB_1_4_HV_ROUTING + 0x00000080 (count=128)
00001c72: 00 00 00 00 00 00 00 00 00 00 00 00 00 00 00 00
00001c82: 00 00 00 00 00 00 00 00 00 00 00 00 00 00 00 00
00001c92: 00 00 00 00 00 00 00 00 00 00 00 00 00 00 00 00
00001ca2: 00 00 00 00 00 00 00 00 00 00 00 00 00 00 00 00
00001cb2: 00 00 00 00 00 00 00 00 00 00 00 00 00 00 00 00
00001cc2: 00 00 00 00 00 00 00 00 00 00 00 00 00 00 00 00
00001cd2: 00 00 00 00 00 00 00 00 00 00 00 00 00 00 00 00
00001ce2: 00 00 00 00 00 00 00 00 00 00 00 00 00 00 00 00

# UDBSWITCH_1_4 (count=128)
00001cf2: 00 02 00 00 00 00 00 80 00 80 00 00 00 00 80 00
00001d02: 20 00 08 00 00 00 04 00 00 42 04 00 40 80 80 20
00001d12: 00 00 00 00 00 00 00 00 00 00 00 00 00 00 00 00
00001d22: 00 00 00 00 00 00 00 00 00 00 00 00 00 00 00 00
00001d32: 40 00 00 00 00 80 00 00 20 01 08 00 00 00 08 00
00001d42: 00 00 0c 00 00 00 00 00 00 41 04 00 00 00 00 00
00001d52: 00 00 00 00 00 00 00 00 00 00 00 00 00 00 00 00
00001d62: 00 00 00 00 00 00 00 80 00 00 00 00 00 00 00 00

# UDB_2_4_HV_ROUTING + 0x00000080 (count=128)
00001d72: 00 00 00 00 00 00 00 00 00 00 00 00 00 00 00 01
00001d82: 00 00 00 00 00 00 00 00 00 00 00 00 00 00 00 00
00001d92: 00 00 00 00 00 00 00 00 00 00 00 00 00 00 00 00
00001da2: 00 00 00 00 00 00 00 00 00 00 00 00 00 00 00 00
00001db2: 18 00 11 00 46 00 00 00 00 00 00 00 00 00 00 00
00001dc2: 11 00 24 00 00 00 0b 00 00 00 00 00 00 00 00 00
00001dd2: 00 00 40 00 00 00 00 00 00 00 00 00 00 00 00 00
00001de2: 00 00 00 00 00 00 00 00 00 00 00 00 00 00 00 00

# UDBSWITCH_0_5 (count=128)
00001df2: 00 00 00 00 00 00 00 00 00 00 00 00 00 00 00 00
00001e02: 00 00 00 00 00 00 00 00 00 00 00 00 00 00 00 00
00001e12: 00 00 00 00 00 00 00 00 00 00 00 00 00 00 00 00
00001e22: 00 00 00 00 00 00 00 00 00 00 00 00 00 00 00 00
00001e32: 00 00 00 00 00 00 00 00 00 00 00 00 00 00 00 00
00001e42: 00 00 00 00 00 00 00 00 00 00 00 00 00 00 00 00
00001e52: 00 00 00 00 00 00 00 00 00 00 00 00 00 00 00 00
00001e62: 00 00 00 00 00 00 00 00 00 00 00 00 00 00 00 00

# UDB_1_5_HV_ROUTING + 0x00000080 (count=128)
00001e72: 00 00 00 00 00 00 00 00 00 00 00 00 00 00 00 00
00001e82: 00 00 00 00 00 00 00 00 00 00 00 00 00 00 00 00
00001e92: 00 00 00 00 00 00 00 00 00 00 00 00 00 00 00 00
00001ea2: 00 00 00 00 00 00 00 00 00 00 00 00 00 00 00 00
00001eb2: 00 00 00 00 00 00 00 00 00 00 00 00 00 00 00 00
00001ec2: 00 00 00 00 00 00 00 00 00 00 00 00 00 00 00 00
00001ed2: 00 00 00 00 00 00 00 00 00 00 00 00 00 00 00 00
00001ee2: 00 00 00 00 00 00 00 00 00 00 00 00 00 00 00 00

# UDBSWITCH_1_5 (count=128)
00001ef2: 00 00 00 00 00 00 00 00 00 00 00 00 00 00 00 00
00001f02: 00 00 00 00 00 00 00 00 00 00 00 00 00 00 00 00
00001f12: 00 00 00 00 00 00 00 00 00 00 00 00 00 00 00 00
00001f22: 00 00 00 00 00 00 00 00 00 00 00 00 00 00 00 00
00001f32: 00 00 00 00 00 00 00 00 00 00 00 00 00 00 00 00
00001f42: 00 00 00 00 00 00 00 00 00 00 00 00 00 00 00 00
00001f52: 00 00 00 00 00 00 00 00 00 00 00 00 00 00 00 00
00001f62: 00 00 00 00 00 00 00 00 00 00 00 00 00 00 00 00

# UDB_2_5_HV_ROUTING + 0x00000080 (count=128)
00001f72: 00 00 00 00 00 00 00 00 00 00 00 00 00 00 00 00
00001f82: 00 00 00 00 00 00 00 00 00 00 00 00 00 00 00 00
00001f92: 00 00 00 00 00 00 00 00 00 00 00 00 00 00 00 00
00001fa2: 00 00 00 00 00 00 00 00 00 00 00 00 00 00 00 00
00001fb2: 00 00 00 00 00 00 00 00 00 00 00 00 00 00 00 00
00001fc2: 00 00 00 00 00 00 00 00 00 00 00 00 00 00 00 00
00001fd2: 00 00 00 00 00 00 00 00 00 00 00 00 00 00 00 00
00001fe2: 00 00 00 00 00 00 00 00 00 00 00 00 00 00 00 00

# DSISWITCH_1_0 (count=128)
00001ff2: 04 80 00 00 02 00 00 08 00 00 00 00 00 00 00 00
00002002: 00 00 00 00 00 00 00 00 00 00 00 00 00 00 00 00
00002012: 00 00 00 00 00 00 00 00 00 00 00 00 00 00 00 00
00002022: 00 00 00 00 00 00 00 00 00 00 00 00 00 00 00 00
00002032: 00 00 00 00 00 00 00 00 00 00 00 00 00 00 00 00
00002042: 00 00 00 00 00 00 00 00 04 00 00 00 00 00 00 00
00002052: 00 00 04 00 00 40 08 00 00 00 00 00 00 00 00 00
00002062: 00 00 00 00 00 00 00 00 00 00 00 00 00 00 00 00

# DSI3_0_HV_ROUTING + 0x00000080 (count=128)
00002072: 04 00 00 00 04 00 00 00 00 40 08 08 01 80 04 00
00002082: 00 00 00 00 00 00 00 00 00 00 00 00 00 00 00 00
00002092: 00 00 00 00 00 00 00 00 00 00 00 40 00 00 00 00
000020a2: 00 00 00 00 00 00 00 00 00 00 00 00 00 00 00 00
000020b2: f0 00 00 00 00 00 00 00 00 00 00 00 00 00 00 00
000020c2: 00 00 00 00 00 00 c0 00 c0 00 00 00 00 00 00 00
000020d2: 20 00 10 00 00 00 00 00 00 00 00 00 00 00 80 00
000020e2: 00 00 00 00 00 00 00 00 00 00 00 00 00 00 00 00

# DSISWITCH_1_1 (count=128)
000020f2: 00 00 00 00 00 00 00 00 00 00 00 00 00 00 00 00
00002102: 00 00 00 00 00 00 00 00 00 00 00 00 00 00 00 00
00002112: 00 00 00 00 00 00 00 00 00 00 00 00 00 00 00 00
00002122: 00 00 00 00 00 00 00 00 00 00 00 00 00 00 00 00
00002132: 00 00 00 00 00 00 00 00 00 00 00 00 00 00 00 00
00002142: 00 00 00 00 00 00 00 00 00 00 00 00 00 00 00 00
00002152: 00 00 00 00 00 00 00 00 00 00 00 00 00 00 00 00
00002162: 00 00 00 00 00 00 00 00 00 00 00 00 00 00 00 00

# DSI3_1_HV_ROUTING + 0x00000080 (count=128)
00002172: 00 00 00 00 00 00 00 00 00 00 00 00 00 00 00 00
00002182: 00 00 00 00 00 00 00 00 00 00 00 00 00 00 00 40
00002192: 00 00 00 00 00 00 00 00 00 00 00 00 00 00 00 00
000021a2: 00 00 00 00 00 00 00 00 00 00 00 00 00 00 00 00
000021b2: 00 00 00 00 00 00 00 00 00 00 00 00 00 00 00 00
000021c2: 00 00 00 00 00 00 00 00 00 00 00 00 00 00 00 00
000021d2: 00 00 00 00 00 00 00 00 00 00 00 00 00 00 00 00
000021e2: 00 00 00 00 00 00 00 00 00 00 00 00 00 00 00 00

# DSISWITCH_1_2 (count=128)
000021f2: 00 00 00 00 00 00 00 00 00 00 00 00 00 00 00 00
00002202: 00 00 00 00 00 00 00 00 00 00 00 00 00 00 00 00
00002212: 00 00 00 00 00 00 00 00 00 00 00 00 00 00 00 00
00002222: 00 00 00 00 00 00 00 00 00 00 00 00 00 00 00 00
00002232: 00 00 00 00 00 00 00 00 00 00 00 00 00 00 00 00
00002242: 00 00 00 00 00 00 00 00 00 00 00 00 00 00 00 00
00002252: 00 00 00 00 00 00 00 00 00 00 00 00 00 00 00 00
00002262: 00 00 00 00 00 00 00 00 00 00 00 00 00 00 00 00

# DSI3_2_HV_ROUTING + 0x00000080 (count=128)
00002272: 00 00 00 00 00 00 00 00 00 00 00 00 00 00 00 00
00002282: 00 00 00 00 00 00 00 00 00 00 00 00 00 00 00 40
00002292: 00 00 00 00 00 00 00 00 00 00 00 00 00 00 00 00
000022a2: 00 00 00 00 00 00 00 00 00 00 00 00 00 00 00 00
000022b2: 00 00 00 00 00 00 00 00 00 00 00 00 00 00 00 00
000022c2: 00 00 00 00 00 00 00 00 00 00 00 00 00 00 00 00
000022d2: 00 00 00 00 00 00 00 00 00 00 00 00 00 00 00 00
000022e2: 00 00 00 00 00 00 00 00 00 00 00 00 00 00 00 00

# DSISWITCH_1_3 (count=128)
000022f2: 00 00 00 00 00 00 00 00 00 00 00 00 00 00 00 00
00002302: 00 00 00 00 00 00 00 00 00 00 00 00 00 00 00 00
00002312: 00 00 00 00 00 00 00 00 00 00 00 00 00 00 00 00
00002322: 00 00 00 00 00 00 00 00 00 00 00 00 00 00 00 00
00002332: 00 00 00 00 00 00 00 00 00 00 00 00 00 00 00 00
00002342: 00 00 00 00 00 00 00 00 00 00 00 00 00 00 00 00
00002352: 00 00 00 00 00 00 00 00 00 00 00 00 00 00 00 00
00002362: 00 00 00 00 00 00 00 00 00 00 00 00 00 00 00 00

# DSI3_3_HV_ROUTING + 0x00000080 (count=128)
00002372: 00 00 00 00 00 00 00 00 00 00 00 00 00 00 00 00
00002382: 00 00 00 00 00 00 00 00 00 00 00 00 00 00 00 40
00002392: 00 00 00 00 00 00 00 00 00 00 00 80 00 00 00 00
000023a2: 00 00 00 00 00 00 00 00 00 00 00 00 00 00 00 00
000023b2: 00 00 00 00 00 00 00 00 00 00 00 00 00 00 00 00
000023c2: 00 00 00 00 00 00 00 00 00 00 00 00 00 00 00 00
000023d2: 00 00 00 00 00 00 00 00 00 00 00 00 00 00 20 00
000023e2: 00 00 00 00 00 00 00 00 00 00 00 00 00 00 00 00

# DSISWITCH_1_4 (count=128)
000023f2: 00 00 00 00 00 00 00 00 00 00 00 00 00 00 00 00
00002402: 00 00 00 00 00 00 00 00 00 00 00 00 00 00 00 00
00002412: 00 00 00 00 00 00 00 00 00 00 00 00 00 00 00 00
00002422: 00 00 00 00 00 00 00 00 00 00 00 00 00 00 00 00
00002432: 00 00 00 00 00 00 00 00 00 00 00 00 00 00 00 00
00002442: 00 00 00 00 00 00 00 80 00 00 00 00 00 00 00 00
00002452: 00 00 00 00 00 00 00 00 00 00 00 00 00 00 00 00
00002462: 00 00 00 00 00 00 00 00 00 00 00 00 00 00 00 00

# DSI3_4_HV_ROUTING + 0x00000080 (count=128)
00002472: 00 00 00 00 00 00 00 00 00 00 00 00 20 00 00 00
00002482: 00 00 00 00 00 00 00 00 00 00 00 00 20 00 00 40
00002492: 00 00 00 00 00 00 00 00 00 00 00 00 00 00 00 00
000024a2: 00 00 00 00 00 00 00 00 00 00 00 00 00 00 00 00
000024b2: 00 00 00 00 00 00 00 00 00 00 00 00 00 00 00 00
000024c2: 00 00 00 00 40 00 00 00 00 00 00 00 00 00 00 00
000024d2: 00 00 00 00 00 00 00 00 00 00 00 00 00 00 00 00
000024e2: 00 00 00 00 00 00 00 00 00 00 00 00 00 00 00 00

# DSISWITCH_1_5 (count=128)
000024f2: 00 00 00 00 00 00 00 00 00 00 00 00 00 00 00 00
00002502: 00 00 00 00 00 00 00 00 00 00 00 00 00 00 00 00
00002512: 00 00 00 00 00 00 00 00 00 00 00 00 00 00 00 00
00002522: 00 00 00 40 20 00 00 00 00 00 00 00 00 00 00 00
00002532: 00 00 00 00 00 00 00 00 00 00 00 00 00 00 00 00
00002542: 00 00 00 00 00 00 00 00 00 00 00 00 00 00 00 00
00002552: 00 00 00 00 00 00 00 00 00 00 00 00 00 00 00 00
00002562: 00 00 00 00 00 00 00 00 00 00 00 00 00 00 00 00

# DSI3_5_HV_ROUTING + 0x00000080 (count=128)
00002572: 00 00 00 00 00 00 00 00 00 00 00 00 00 00 00 00
00002582: 00 00 00 00 00 00 00 00 00 00 00 00 00 00 00 00
00002592: 00 00 00 00 00 00 00 00 00 00 00 00 00 00 00 00
000025a2: 00 00 00 00 00 00 00 00 00 00 00 00 00 00 00 00
000025b2: 00 00 00 00 00 00 00 00 00 00 00 00 30 00 00 00
000025c2: 00 00 00 00 00 00 00 00 00 00 00 00 00 00 00 00
000025d2: 00 00 00 00 00 00 00 00 00 00 00 00 00 00 00 00
000025e2: 00 00 00 00 00 00 00 00 00 00 00 00 00 00 00 00

